ST 558 Project One
…
jwap_time_table$code <- as.numeric(jwap_time_table$code)

jwap_time_table

# A tibble: 286 × 2
    code median_time
   <dbl> <time>     
 1     1 02'00"     
 2     2 07'00"     
 3     3 12'00"     
 4     4 17'00"     
 5     5 22'00"     
 6     6 27'00"     
 7     7 34'30"     
 8     8 42'00"     
 9     9 47'00"     
10    10 54'30"     
# ℹ 276 more rows
…
jwdp_time_table$code <- as.numeric(jwdp_time_table$code)

jwdp_time_table

# A tibble: 151 × 2
    code median_time
   <dbl> <time>     
 1     1 00:14:30   
 2     2 00:44:30   
 3     3 01:14:30   
 4     4 01:44:30   
 5     5 02:14:30   
 6     6 02:44:30   
 7     7 03:04:30   
 8     8 03:14:30   
 9     9 03:24:30   
10    10 03:34:30   
# ℹ 141 more rows
…
[1] "https://api.census.gov/data/2016/acs/acs1/pums?get=PWGTP,GASP,GRPIP,JWAP,FER,&for=STATE:11"

Warning: The `x` argument of `as_tibble.matrix()` must have unique column names if
`.name_repair` is omitted as of tibble 2.0.0.
ℹ Using compatibility `.name_repair`.

$num_var
[1] "GASP"  "GRPIP" "JWAP" 

$cat_var
[1] "FER"

$census_tib
# A tibble: 6,646 × 6
   PWGTP  GASP GRPIP state JWAP   FER                                           
   <dbl> <dbl> <dbl> <chr> <time> <chr>                                         
 1   230     3    60 11    08:17  No                                            
 2   105    30     0 11    24:47  N/A (less than 15 years/greater than 50 years…
 3   119    30     0 11    09:17  No                                            
 4   163    80   101 11       NA  N/A (less than 15 years/greater than 50 years…
 5   132     1     0 11    06:22  N/A (less than 15 years/greater than 50 years…
 6    99     0     0 11       NA  N/A (less than 15 years/greater than 50 years…
 7    34     0     0 11       NA  N/A (less than 15 years/greater than 50 years…
 8   123   140     0 11       NA  N/A (less than 15 years/greater than 50 years…
 9   190   140     0 11    09:02  N/A (less than 15 years/greater than 50 years…
10    28   380     0 11       NA  N/A (less than 15 years/greater than 50 years…
# ℹ 6,636 more rows

Ensure the multi_api function is working properly by combining years and feeding in some numeric, date, and categorical variables.

multi_api(surv_years = c("2015", "2021"), num_var = c("JWDP","GRPIP","GRPIP"), cat_var = c("FER", "HHL"), condition="AGEP=30", geo_subset= "STATE:19")

[1] "https://api.census.gov/data/2015/acs/acs1/pums?get=PWGTP,JWDP,GRPIP,FER,HHL,&AGEP=30&for=STATE:19"
[1] "https://api.census.gov/data/2021/acs/acs1/pums?get=PWGTP,JWDP,GRPIP,FER,HHL,&AGEP=30&for=STATE:19"

# A tibble: 723 × 8
   PWGTP GRPIP  AGEP state JWDP   FER                            HHL   surv_year
   <dbl> <dbl> <dbl> <chr> <time> <chr>                          <chr> <chr>    
 1    35     0    30 19    04:17  N/A (less than 15 years/great… Engl… 2015     
 2    51     0    30 19    04:17  No                             Engl… 2015     
 3    57     0    30 19    11:22  No                             Engl… 2015     
 4    82     0    30 19       NA  No                             Engl… 2015     
 5   220     0    30 19    04:37  No                             Engl… 2015     
 6    52    11    30 19    09:47  No                             Engl… 2015     
 7    75    76    30 19    03:17  Yes                            Engl… 2015     
 8    96     0    30 19    03:52  No                             Engl… 2015     
 9    59     0    30 19    03:32  N/A (less than 15 years/great… Engl… 2015     
10   174     0    30 19    01:42  N/A (less than 15 years/great… Engl… 2015     
# ℹ 713 more rows
…
#this should be last call to api_query, which establishes defaults for summary functions
default_query <- api_query()

[1] "https://api.census.gov/data/2022/acs/acs1/pums?get=PWGTP,AGEP,PWGTP,SEX,&for=STATE:11"

default_query

$num_var
[1] "AGEP"  "PWGTP"

$cat_var
[1] "SEX"

$census_tib
# A tibble: 6,718 × 4
   PWGTP  AGEP state SEX   
   <dbl> <dbl> <chr> <chr> 
 1    81    18 11    Female
 2    67    18 11    Female
 3    85    19 11    Male  
 4    51    18 11    Male  
 5    56    23 11    Female
 6    80    20 11    Male  
 7   213    34 11    Female
 8   175    66 11    Male  
 9    84    24 11    Male  
10    62    19 11    Female
# ℹ 6,708 more rows
…
